[{
        "name": "asdf-julia",
        "url": "https://github.com/rkyleg/asdf-juila",
        "desc": "a plugin for asdf-vm for the Julia language"
    },
    {
        "name": "Qt-based Wunderlist Client",
        "url": "https://gitlab.com/virtuslabs/qt_wunderlist_client",
        "desc": "Qt-based client for Wunderlist - In Progress"
    },
    {
        "name": "zetta-led-arduino-driver",
        "url": "https://github.com/rkyleg/zetta-led-arduino-driver",
        "desc": "Arduino LED driver for ZettaJS IOT framework"
    },
    {
        "name": "Diamond Pro Detailing - Mobile App",
        "url": "https://gitlab.com/diamondpro/diamondpro_mobile",
        "desc": "Ionic 2 app for Diamond Pro"
    },
    {
        "name": "Diamond Pro Detailing Website",
        "url": "https://gitlab.com/diamondpro/diamondpro",
        "desc": "Website for Diamond Pro - In Progress"
    },
    {
        "name": "Deepin Terminal Redux",
        "url": "http://gitlab.com/virtuslabs/deepin-terminal-redux",
        "desc": "Revival of GTK-based project - In Progress"
    },
    {
        "name": "Gilded Age Jazz & Piano Bar",
        "url": "https://gitlab.com/rkyleg/hodges_intro_web_design",
        "desc": "Static website for school"
    }
]
